{
  "project_info": {
    "project_number": "747855608949",
    "firebase_url": "https://veolia-c8931.firebaseio.com",
    "project_id": "veolia-c8931",
    "storage_bucket": "veolia-c8931.appspot.com"
  },
  "client": [
    {
      "client_info": {
        "mobilesdk_app_id": "1:747855608949:android:82d2cd1fcd341e4c",
        "android_client_info": {
          "package_name": "com.mccknock"
        }
      },
      "oauth_client": [
        {
          "client_id": "747855608949-vf89m6b993e380j82svias8majojl1p5.apps.googleusercontent.com",
          "client_type": 1,
          "android_info": {
            "package_name": "com.mccknock",
            "certificate_hash": "1791ba1f73851b0d9d106f50bdd389fde7a9691b"
          }
        },
        {
          "client_id": "747855608949-l00k6gj76cq9piorgnub701hnfno3282.apps.googleusercontent.com",
          "client_type": 3
        }
      ],
      "api_key": [
        {
          "current_key": "AIzaSyBc2VfOf03LxiCgdPpUfuFM4_HewebadZ0"
        }
      ],
      "services": {
        "appinvite_service": {
          "other_platform_oauth_client": [
            {
              "client_id": "747855608949-l00k6gj76cq9piorgnub701hnfno3282.apps.googleusercontent.com",
              "client_type": 3
            },
            {
              "client_id": "747855608949-0ij59kupmcd8i0t5brvq08st33ls9ofc.apps.googleusercontent.com",
              "client_type": 2,
              "ios_info": {
                "bundle_id": "com.myconnectedcompany.myconnectedapp"
              }
            }
          ]
        }
      }
    },
    {
      "client_info": {
        "mobilesdk_app_id": "1:747855608949:android:328fce0f95e455bf",
        "android_client_info": {
          "package_name": "com.rnapp"
        }
      },
      "oauth_client": [
        {
          "client_id": "747855608949-8cr1h3s6cd9kvh8erhai6fi9mprrnnp8.apps.googleusercontent.com",
          "client_type": 1,
          "android_info": {
            "package_name": "com.rnapp",
            "certificate_hash": "34cdd1752d9d6950f9eeabc5b4a4d8224adbac9a"
          }
        },
        {
          "client_id": "747855608949-103vpb0ljjgli6temeo927vjtdurlk3g.apps.googleusercontent.com",
          "client_type": 1,
          "android_info": {
            "package_name": "com.rnapp",
            "certificate_hash": "7f46f21b196ace4fbbc3758bf4d5508af8aa4b06"
          }
        },
        {
          "client_id": "747855608949-blsfp6ia8bg549p8d0dggg4tjm8tuhpf.apps.googleusercontent.com",
          "client_type": 1,
          "android_info": {
            "package_name": "com.rnapp",
            "certificate_hash": "17ce83dc408039fd6766d39cfc4f2ade79b36934"
          }
        },
        {
          "client_id": "747855608949-3v69huiuphqktcudmo655n4d1flnk387.apps.googleusercontent.com",
          "client_type": 1,
          "android_info": {
            "package_name": "com.rnapp",
            "certificate_hash": "db1951b46fa0f06636a7002969e4e683123e24d1"
          }
        },
        {
          "client_id": "747855608949-l00k6gj76cq9piorgnub701hnfno3282.apps.googleusercontent.com",
          "client_type": 3
        }
      ],
      "api_key": [
        {
          "current_key": "AIzaSyBc2VfOf03LxiCgdPpUfuFM4_HewebadZ0"
        }
      ],
      "services": {
        "appinvite_service": {
          "other_platform_oauth_client": [
            {
              "client_id": "747855608949-l00k6gj76cq9piorgnub701hnfno3282.apps.googleusercontent.com",
              "client_type": 3
            },
            {
              "client_id": "747855608949-0ij59kupmcd8i0t5brvq08st33ls9ofc.apps.googleusercontent.com",
              "client_type": 2,
              "ios_info": {
                "bundle_id": "com.myconnectedcompany.myconnectedapp"
              }
            }
          ]
        }
      }
    },
    {
      "client_info": {
        "mobilesdk_app_id": "1:747855608949:android:8d2cc4989cbe9f6b",
        "android_client_info": {
          "package_name": "com.veolia"
        }
      },
      "oauth_client": [
        {
          "client_id": "747855608949-djja8glgecup98i4rpr4eetbrvgvg6i5.apps.googleusercontent.com",
          "client_type": 1,
          "android_info": {
            "package_name": "com.veolia",
            "certificate_hash": "faa6779884b5e85dec8e9c49c66b804bd91c19b9"
          }
        },
        {
          "client_id": "747855608949-s62jgjp0nimv589j950sqpbm2cdvp1s7.apps.googleusercontent.com",
          "client_type": 1,
          "android_info": {
            "package_name": "com.veolia",
            "certificate_hash": "8516f57a16550ec0784f03e1ce571ef11606f86e"
          }
        },
        {
          "client_id": "747855608949-jpv9s8tkneco48b9krv7604uceij4g3u.apps.googleusercontent.com",
          "client_type": 1,
          "android_info": {
            "package_name": "com.veolia",
            "certificate_hash": "17ce83dc408039fd6766d39cfc4f2ade79b36934"
          }
        },
        {
          "client_id": "747855608949-gmuufg7m57icd61uvjfettjfpnbu51qd.apps.googleusercontent.com",
          "client_type": 1,
          "android_info": {
            "package_name": "com.veolia",
            "certificate_hash": "b931de1a4412bf30b76e38838b8ffab26585ba97"
          }
        },
        {
          "client_id": "747855608949-31citu6g28v70idvfkhmpp701bvsopra.apps.googleusercontent.com",
          "client_type": 1,
          "android_info": {
            "package_name": "com.veolia",
            "certificate_hash": "74c42d77b1e88c6c33e75a1802e936b504095020"
          }
        },
        {
          "client_id": "747855608949-qtn73j351mdgiadsq4afqm3a2dljnqsb.apps.googleusercontent.com",
          "client_type": 1,
          "android_info": {
            "package_name": "com.veolia",
            "certificate_hash": "db1951b46fa0f06636a7002969e4e683123e24d1"
          }
        },
        {
          "client_id": "747855608949-l00k6gj76cq9piorgnub701hnfno3282.apps.googleusercontent.com",
          "client_type": 3
        }
      ],
      "api_key": [
        {
          "current_key": "AIzaSyBc2VfOf03LxiCgdPpUfuFM4_HewebadZ0"
        }
      ],
      "services": {
        "appinvite_service": {
          "other_platform_oauth_client": [
            {
              "client_id": "747855608949-l00k6gj76cq9piorgnub701hnfno3282.apps.googleusercontent.com",
              "client_type": 3
            },
            {
              "client_id": "747855608949-0ij59kupmcd8i0t5brvq08st33ls9ofc.apps.googleusercontent.com",
              "client_type": 2,
              "ios_info": {
                "bundle_id": "com.myconnectedcompany.myconnectedapp"
              }
            }
          ]
        }
      }
    },
    {
      "client_info": {
        "mobilesdk_app_id": "1:747855608949:android:440b6768f12bc2e5e84c3c",
        "android_client_info": {
          "package_name": "com.veoliastandard"
        }
      },
      "oauth_client": [
        {
          "client_id": "747855608949-qig6298grb4aim508871kou5t0gi5dtm.apps.googleusercontent.com",
          "client_type": 1,
          "android_info": {
            "package_name": "com.veoliastandard",
            "certificate_hash": "02a1b88c603cf956b4a86009b1876501bb2e913c"
          }
        },
        {
          "client_id": "747855608949-7f7ao1e22uv8qcn870vmgigg166bco9b.apps.googleusercontent.com",
          "client_type": 1,
          "android_info": {
            "package_name": "com.veoliastandard",
            "certificate_hash": "5e8f16062ea3cd2c4a0d547876baa6f38cabf625"
          }
        },
        {
          "client_id": "747855608949-l00k6gj76cq9piorgnub701hnfno3282.apps.googleusercontent.com",
          "client_type": 3
        }
      ],
      "api_key": [
        {
          "current_key": "AIzaSyBc2VfOf03LxiCgdPpUfuFM4_HewebadZ0"
        }
      ],
      "services": {
        "appinvite_service": {
          "other_platform_oauth_client": [
            {
              "client_id": "747855608949-l00k6gj76cq9piorgnub701hnfno3282.apps.googleusercontent.com",
              "client_type": 3
            },
            {
              "client_id": "747855608949-0ij59kupmcd8i0t5brvq08st33ls9ofc.apps.googleusercontent.com",
              "client_type": 2,
              "ios_info": {
                "bundle_id": "com.myconnectedcompany.myconnectedapp"
              }
            }
          ]
        }
      }
    }
  ],
  "configuration_version": "1"
}